module bitbucket.org/spreadaiteam/protoc-gen-go-json

go 1.12

require (
	github.com/golang/glog v0.0.0-20160126235308-23def4e6c14b
	github.com/mitchellh/protoc-gen-go-json v1.1.0
	github.com/stretchr/testify v1.3.0
	google.golang.org/protobuf v1.25.0
)
